…
    Attaching package: 'caret'

    The following object is masked from 'package:purrr':

        lift

Load the data

``` r
x <- read_csv("AI_vs_Human_Data.csv", col_types = "ffffcfffffffffff")
x
```

    # A tibble: 350 × 9
       Source Model   Paraphrased Topic          Answer ChatGPT Bard  Claude zeroGPT
       <fct>  <fct>   <fct>       <fct>          <chr>  <fct>   <fct> <fct>  <fct>  
     1 AI     ChatGPT No          Global Warming "Glob… AI      Human Human  AI     
     2 AI     ChatGPT No          James Webb Te… "The … AI      Human Human  AI     
     3 AI     ChatGPT No          Artificial In… "Arti… AI      Human Human  AI     
     4 AI     ChatGPT No          Climate Chang… "Clim… AI      Human Human  AI     
     5 AI     ChatGPT No          The Future of… "The … AI      Human Human  AI     
     6 AI     ChatGPT No          Space Explora… "Spac… AI      Human Human  Human  
     7 AI     ChatGPT No          Mental Health… "Ment… AI      Human Human  AI     
     8 AI     ChatGPT No          Human Rights … "In t… AI      Human Human  AI     
     9 AI     ChatGPT No          Impact of Soc… "The … AI      Human Human  AI     
    10 AI     ChatGPT No          Genetic Engin… "Gene… AI      Human Human  AI     
    # ℹ 340 more rows
…
